lab2_2(2_1)/simulation/qsim/lab2_2.msim.vcd
$comment
	File created using the following command:
		vcd file lab2_2.msim.vcd -direction
$end
$date
	Thu Oct 12 14:28:48 2023
$end
$version
	ModelSim Version 10.1d
$end
$timescale
	1ps
$end
$scope module trippleAdder_vlg_vec_tst $end
$var reg 1 ! c0 $end
$var reg 1 " x0 $end
$var reg 1 # x1 $end
$var reg 1 $ x2 $end
$var reg 1 % y0 $end
$var reg 1 & y1 $end
$var reg 1 ' y2 $end
$var wire 1 ( Cout $end
$var wire 1 ) s0 $end
$var wire 1 * s1 $end
$var wire 1 + s2 $end
$var wire 1 , sampler $end
$scope module i1 $end
$var wire 1 - gnd $end
$var wire 1 . vcc $end
$var wire 1 / unknown $end
$var tri1 1 0 devclrn $end
$var tri1 1 1 devpor $end
$var tri1 1 2 devoe $end
$var wire 1 3 x0~combout $end
$var wire 1 4 c0~combout $end
$var wire 1 5 y0~combout $end
$var wire 1 6 inst1|inst3|inst2~0_combout $end
$var wire 1 7 x1~combout $end
$var wire 1 8 y1~combout $end
$var wire 1 9 inst1|inst~0_combout $end
$var wire 1 : inst2|inst3|inst2~combout $end
$var wire 1 ; y2~combout $end
$var wire 1 < x2~combout $end
$var wire 1 = inst2|inst~0_combout $end
$var wire 1 > inst3|inst3|inst2~combout $end
$var wire 1 ? inst3|inst~0_combout $end
$upscope $end
$upscope $end
$enddefinitions $end
#0
$dumpvars
0!
0"
0#
0$
1%
0&
0'
0(
1)
0*
0+
x,
0-
1.
x/
10
11
12
03
04
15
16
07
08
09
0:
0;
0<
0=
0>
0?
$end
#5000
1&
18
0,
1:
1*
#10000
1"
0%
1'
13
05
1;
1,
1>
1+
#15000
0&
1%
0'
08
15
0;
0,
0:
19
06
0>
1=
1:
0*
0)
0+
1?
1>
1*
1(
1+
#20000
1#
1$
0"
1&
0%
17
1<
03
18
05
1,
0?
0>
09
0:
0(
0+
0*
#25000
1'
0&
1%
1;
08
15
0,
1?
1>
0=
1:
16
0>
1(
1+
1*
1)
0+
#30000
1"
0%
13
05
1,
#35000
0$
1&
1%
0<
18
15
0,
0?
1>
1=
0:
19
06
0>
1:
0(
1+
0*
0)
0+
1*
#40000
0#
0"
1$
0&
07
03
1<
08
1,
09
16
1?
1>
0=
0:
1)
1(
1+
0>
0*
0+
#45000
0%
0$
1&
05
0<
18
0,
06
0?
1>
1:
0)
0(
1+
1*
#50000
1"
13
1,
16
1)
#55000
1$
1<
0,
1?
0>
1(
0+
#60000
0'
1#
1%
0&
0"
0$
0;
17
15
08
03
0<
1,
0?
0(
#65000
1'
1&
1$
1;
18
1<
0,
1?
1=
0:
1>
1(
0*
1+
#70000
0%
1"
0'
0&
05
13
0;
08
1,
0?
0>
0=
1:
1>
0(
0+
1*
1+
#75000
0$
0<
0,
0>
0+
#80000
0#
1%
0"
1'
07
15
03
1;
1,
0:
1>
0*
1+
#85000
1$
0%
1<
05
0,
1?
0>
06
1(
0+
0)
#90000
1"
0$
1%
13
0<
15
1,
19
0?
1>
1=
1:
0(
1+
0>
1*
0+
#95000
0'
0;
0,
1?
1>
1(
1+
#100000
1&
1#
0"
18
17
03
1,
09
16
0:
1)
0*
#105000
1$
1'
0&
1<
1;
08
0,
0=
1:
0>
1*
0+
#110000
1"
0$
0'
1&
13
0<
0;
18
1,
19
06
0?
1=
0:
1:
1?
1>
0)
0(
0*
1*
1(
1+
#115000
0%
1$
0&
05
1<
08
0,
09
16
0?
0>
0=
0:
1:
1>
1)
0(
0+
0*
1*
1+
#120000
0#
0"
1%
07
03
15
1,
0:
0*
#125000
0$
0<
0,
0>
0+
#130000
1'
1&
1"
1$
1;
18
13
1<
1,
1?
1:
19
06
0:
1(
1*
0)
0*
#135000
0'
0&
0;
08
0,
0?
1>
1=
1:
0>
0(
1+
1*
0+
#140000
1#
0%
0"
0$
1&
17
05
03
0<
18
1,
09
1?
1>
0:
1(
1+
0*
#145000
1'
1;
0,
0?
0>
0(
0+
#150000
1%
1"
15
13
1,
19
1:
1*
#155000
0&
0'
0%
08
0;
05
0,
0=
0:
1?
1>
09
16
0?
0>
1:
0*
1(
1+
1)
0(
0+
1*
#160000
0#
1$
0"
1'
07
1<
03
1;
1,
0:
1?
06
0*
1(
0)
#165000
1&
0$
18
0<
0,
1:
0?
1>
1*
0(
1+
#170000
1%
1"
0'
0&
1$
15
13
0;
08
1<
1,
19
0:
1=
1:
0*
0>
1*
0+
#175000
1'
1&
1;
18
0,
1?
1>
0=
0:
0>
1(
1+
0*
0+
#180000
1#
0"
0$
0'
17
03
0<
0;
1,
1=
1:
09
16
0?
1?
1>
0:
1*
1)
0(
1(
1+
0*
#185000
0%
0&
1$
1'
05
08
1<
1;
0,
06
0=
1:
0>
0)
1*
0+
#190000
1"
1&
0'
13
18
0;
1,
16
1=
0:
0?
1>
0>
1)
0*
0(
1+
0+
#195000
1%
0$
15
0<
0,
19
06
1?
1>
1:
0)
1(
1+
1*
#200000
0#
0"
0&
1'
0%
07
03
08
1;
05
1,
09
0?
0>
0=
0:
0(
0+
1>
0*
1+
#210000
1$
1"
1&
0'
1<
13
18
0;
0,
16
1:
1)
1*
#215000
0$
0<
1,
0>
0+
#220000
1#
1%
0"
0&
1'
17
15
03
08
1;
0,
1>
1+
#225000
1$
1<
1,
1?
0>
1(
0+
#230000
1"
1&
13
18
0,
19
06
1=
0:
1:
1>
0)
0*
1*
1+
#235000
0%
0$
0&
05
0<
08
1,
09
16
0?
0>
0=
0:
1:
1>
1)
0(
0+
0*
1*
1+
#240000
0#
0"
1&
07
03
18
0,
06
0)
#245000
0'
1%
0&
0;
15
08
1,
0>
16
0:
0+
1)
0*
#250000
1"
1&
13
18
0,
19
06
1:
0:
0)
1*
0*
#255000
1$
0%
1<
05
1,
1>
09
16
1:
1+
1)
1*
#260000
1#
0"
1%
17
03
15
0,
1=
0:
0>
0*
0+
#270000
1"
13
1,
19
06
1:
0)
1*
#275000
0&
0%
08
05
0,
0=
0:
09
16
1>
1:
0*
1)
1+
1*
#280000
1'
0$
0#
0"
1;
0<
07
03
1,
0:
06
0*
0)
#285000
1%
1$
15
1<
0,
16
1?
0>
1)
1(
0+
#290000
1"
13
1,
19
06
1=
1:
0)
1>
1*
1+
#295000
0'
0%
0;
05
0,
0?
0>
09
16
0=
0:
0(
0+
1)
1>
0*
1+
#300000
1#
0$
0"
1'
17
0<
03
1;
1,
1:
06
1*
0)
#305000
0'
0;
0,
0>
0+
#310000
1&
1%
1$
1"
18
15
1<
13
1,
1=
0:
19
1>
0>
1:
0*
1+
0+
1*
#315000
0%
05
0,
09
16
0:
1)
0*
#320000
0#
0&
0$
0"
07
08
0<
03
1,
0=
1?
1>
06
0?
0>
1(
1+
0)
0(
0+
#330000
1%
1"
15
13
0,
19
1=
1:
1?
1>
1*
1(
1+
#335000
1&
1$
18
1<
1,
0=
0:
0?
0>
1>
0*
0(
0+
1+
#340000
1#
0"
0&
0$
17
03
08
0<
0,
09
16
0>
1:
1)
0+
1*
#345000
1'
1&
1$
1;
18
1<
1,
1?
1=
0:
1>
1(
0*
1+
#350000
0%
1"
0'
0&
0$
05
13
0;
08
0<
0,
0=
1:
0?
0>
1*
0(
0+
#355000
1$
1<
1,
1>
1+
#360000
0#
1%
0"
1'
07
15
03
1;
0,
0:
1?
0>
0*
1(
0+
#370000
0$
1"
0'
0<
13
0;
1,
0?
19
06
1=
1:
0(
0)
1?
1>
1*
1(
1+
#375000
1$
1'
1<
1;
0,
#380000
1&
1#
0%
0"
0'
18
17
05
03
0;
1,
09
0?
0>
0:
0(
0+
0*
#385000
0$
0<
0,
1?
1>
1(
1+
#390000
0&
1"
1'
08
13
1;
1,
0=
1:
16
0?
0>
1>
1*
1)
0(
0+
1+
#395000
1%
1&
15
18
0,
19
06
1=
0:
1:
0>
0)
0*
1*
0+
#400000
0#
0"
0'
0%
07
03
0;
05
1,
0=
0:
09
1?
1>
0?
0>
1:
0*
1(
1+
0(
0+
1*
#405000
1$
1'
1<
1;
0,
1?
1(
#410000
1"
1%
13
15
1,
19
0:
0*
#415000
0$
0'
0<
0;
0,
0?
0(
#420000
1#
0"
0%
1$
1'
17
03
05
1<
1;
1,
1=
1:
09
1?
1>
0:
1*
1(
1+
0*
#425000
0&
0$
08
0<
0,
0=
1:
0?
0>
1>
1*
0(
0+
1+
#430000
1"
1$
13
1<
1,
16
1?
0>
1)
1(
0+
#435000
1%
1&
0$
15
18
0<
0,
19
06
1=
0:
0?
1>
1:
0>
0)
0*
0(
1+
1*
0+
#440000
0#
0"
0%
0&
1$
07
03
05
08
1<
1,
09
1?
1>
0=
0:
1(
1+
0>
0*
0+
#445000
0'
0;
0,
0?
1>
0(
1+
#450000
1"
1&
0$
13
18
0<
1,
16
1:
0>
1)
1*
0+
#455000
1'
0&
1;
08
0,
1>
0:
1+
0*
#460000
1#
1%
0"
1$
0'
17
15
03
1<
0;
1,
1:
1*
#465000
1&
0%
18
05
0,
1=
0:
06
0>
0*
0)
0+
#470000
1"
0$
1'
1%
13
0<
1;
15
1,
19
1:
1*
#475000
0&
0'
08
0;
0,
0=
0:
1?
1>
0?
0>
0*
1(
1+
0(
0+
#480000
0#
0"
0%
07
03
05
1,
1=
1:
09
1?
1>
0=
0:
1*
0?
0>
1(
1+
0*
0(
0+
#485000
1$
1<
0,
1>
1+
#490000
1&
1'
1"
1%
0$
18
1;
13
15
0<
1,
1:
19
0:
1*
0*
#495000
0'
1$
0;
1<
0,
#500000
1#
0"
0%
0$
17
03
05
0<
1,
1=
1:
09
0>
1?
1>
0:
1*
0+
1(
1+
0*
#505000
1'
1%
1;
15
0,
0?
0>
16
0(
0+
1)
#510000
0&
1"
1$
08
13
1<
1,
0=
1:
19
06
1?
1>
0>
0:
1*
0)
1(
1+
0+
0*
#515000
0'
1&
0;
18
0,
0?
1>
1=
1:
0>
0(
1+
1*
0+
#520000
0#
0%
0"
07
05
03
1,
0=
0:
09
1>
1:
0*
1+
1*
#525000
0$
1'
0<
1;
0,
#530000
1%
1"
0'
15
13
0;
1,
19
0>
0:
0+
0*
#535000
1$
1<
0,
1>
1+
#540000
0&
1#
0%
0"
08
17
05
03
1,
09
1:
1*
#545000
0$
1&
1%
0<
18
15
0,
0>
1=
0:
16
1?
1>
0+
0*
1)
1(
1+
#550000
1"
1$
0%
13
1<
05
1,
0?
0>
0(
0+
#555000
1'
1%
1;
15
0,
1?
1>
19
06
1:
1(
1+
0)
1*
#560000
0#
0&
0"
07
08
03
1,
09
16
0=
0:
1)
0>
0*
0+
#565000
0$
0%
0<
05
0,
0?
1>
06
0(
1+
0)
#570000
1"
1$
13
1<
1,
16
1?
0>
1)
1(
0+
#575000
1&
18
0,
1:
1*
#580000
1#
1%
0"
17
15
03
1,
1=
0:
1>
0*
1+
#585000
0&
08
0,
0=
1:
0>
1*
0+
#590000
0'
0$
1"
1&
0;
0<
13
18
1,
0?
19
06
1=
0:
1:
1?
1>
0(
0)
0*
1*
1(
1+
#595000
0&
08
0,
0=
0:
0?
0>
0*
0(
0+
#600000
0#
0%
1'
1$
0"
1&
07
05
1;
1<
03
18
1,
09
1?
1:
1(
1*
#605000
1%
0$
0&
15
0<
08
0,
16
0?
1>
0:
1)
0(
1+
0*
#610000
1"
1$
13
1<
1,
19
06
1?
0>
1=
1:
0)
1(
0+
1>
1*
1+
#615000
0%
1&
0$
05
18
0<
0,
09
16
0=
0:
0?
0>
1:
1>
1)
0*
0(
0+
1*
1+
#620000
1#
0'
0"
1%
1$
17
0;
03
15
1<
1,
1=
0:
0>
0*
0+
#625000
0&
0%
08
05
0,
0=
1:
06
1>
1*
0)
1+
#630000
1"
1&
13
18
1,
16
1=
0:
0>
1)
0*
0+
#635000
0$
0<
0,
1?
1>
1(
1+
#640000
0#
1'
1%
0"
1$
07
1;
15
03
1<
1,
0=
1:
0>
1*
0+
#645000
0&
0$
08
0<
0,
0:
0?
1>
0*
0(
1+
#650000
0%
1"
05
13
1,
#655000
0'
1$
0;
1<
0,
#660000
1#
0"
1'
17
03
1;
1,
1:
06
1?
0>
1*
0)
1(
0+
#665000
0'
0;
0,
0?
1>
0(
1+
#670000
1"
1'
13
1;
1,
16
1?
0>
1)
1(
0+
#675000
0$
0'
0<
0;
0,
0?
0(
#680000
1&
0#
0"
18
07
03
1,
06
0)
#685000
1'
0&
1;
08
0,
1>
0:
1+
0*
#690000
1"
0'
1&
13
0;
18
1,
16
0>
1:
1)
0+
1*
#695000
1%
1$
1'
0&
15
1<
1;
08
0,
19
06
1?
0:
1=
1:
0)
1(
0*
1>
1*
1+
#700000
1#
0"
1&
17
03
18
1,
09
16
0:
1)
0*
#705000
0%
0&
05
08
0,
06
0=
1:
0>
0)
1*
0+
#710000
0'
1"
1&
0;
13
18
1,
0?
1>
16
1=
0:
0>
0(
1+
1)
0*
0+
#715000
1'
1;
0,
1?
1>
1(
1+
#720000
0#
1%
0"
0'
07
15
03
0;
1,
0=
1:
0?
0>
1>
1*
0(
0+
1+
#725000
0$
0&
0%
0<
08
05
0,
0>
0:
06
0+
0*
0)
#730000
1"
13
1,
16
1)
#735000
1'
1$
1&
1%
1;
1<
18
15
0,
1?
1:
19
06
0:
1(
1*
0)
0*
#740000
1#
0"
0'
0%
17
03
0;
05
1,
1=
1:
09
0?
1>
0>
0:
1*
0(
1+
0+
0*
#745000
0$
0&
1'
1%
0<
08
1;
15
0,
0=
1:
16
1>
1*
1)
1+
#750000
1"
1$
0'
0%
13
1<
0;
05
1,
#760000
0#
1&
0"
0$
1'
07
18
03
0<
1;
0,
06
0)
#765000
1%
0&
1$
0'
15
08
1<
0;
1,
16
0:
1)
0*
#770000
1"
0$
13
0<
0,
19
06
0>
1=
1:
0)
0+
1?
1>
1*
1(
1+
#775000
1&
1'
1$
18
1;
1<
1,
0=
0:
0>
0*
0+
#780000
1#
0%
0"
0&
0'
0$
17
05
03
08
0;
0<
0,
09
0?
1:
0(
1*
#785000
1%
15
1,
16
1)
#790000
1"
1'
1$
13
1;
1<
0,
19
06
1?
0:
0)
1(
0*
#795000
0'
0;
1,
0?
1>
0(
1+
#800000
0#
0"
1'
07
03
1;
0,
1=
1:
09
16
1?
0>
1>
0=
0:
1*
1)
1(
0+
0>
1+
0*
0+
#805000
1&
0%
0$
0'
18
05
0<
0;
1,
1:
06
0?
1*
0)
0(
#810000
1"
1$
13
1<
0,
16
1>
1)
1+
#815000
0$
0<
1,
0>
0+
#820000
1#
1%
1'
0"
17
15
1;
03
0,
1=
0:
1>
0>
0*
1+
0+
#825000
0'
0;
1,
1?
1>
1(
1+
#830000
1"
1'
13
1;
0,
19
06
0?
0>
1:
0)
0(
0+
1*
#835000
0&
1$
08
1<
1,
0=
0:
1?
1>
0>
0*
1(
1+
0+
#840000
0#
0"
1&
0$
07
03
18
0<
0,
09
16
0?
1>
1:
1)
0(
1+
1*
#845000
0%
0&
05
08
1,
06
0:
0)
0*
#850000
0'
1"
1%
1&
0;
13
15
18
0,
0>
19
1:
0:
0+
1*
0*
#855000
1$
1'
0%
1<
1;
05
1,
1?
09
16
1:
1(
1)
1*
#860000
1#
0"
0$
0'
17
03
0<
0;
0,
1=
0:
06
0?
1?
1>
0*
0)
0(
1(
1+
#865000
0&
1%
1'
08
15
1;
1,
0=
1:
16
0?
0>
1>
1*
1)
0(
0+
1+
#870000
1"
1&
0%
0'
13
18
05
0;
0,
1=
0:
0>
1?
1>
0*
0+
1(
1+
#875000
0&
08
1,
0=
1:
0?
0>
1*
0(
0+
#880000
0#
0"
1%
1'
07
03
15
1;
0,
0:
1>
0*
1+
#885000
0%
05
1,
06
0)
#890000
1&
1"
0'
18
13
0;
0,
1:
16
0>
1*
1)
0+
#895000
0&
1'
08
1;
1,
0:
1>
0*
1+
#900000
1$
1#
1%
0"
0'
1<
17
15
03
0;
0,
1:
1*
#905000
0$
1'
0<
1;
1,
#910000
1&
1"
1$
18
13
1<
0,
1=
0:
19
06
1?
0>
1>
1:
0*
0)
1(
0+
1+
1*
#915000
0%
0'
0&
0$
05
0;
08
0<
1,
09
16
0=
0:
1:
0?
0>
1)
0*
1*
0(
0+
#920000
0#
0"
07
03
0,
0:
06
0*
0)
#925000
1'
1$
1;
1<
1,
1?
1(
#930000
1&
1"
18
13
0,
1:
16
1*
1)
#935000
1%
0$
15
0<
1,
19
06
0?
1>
0:
0)
0(
1+
0*
#940000
1#
0'
0&
0"
17
0;
08
03
0,
0>
09
16
1:
0+
1)
1*
#945000
1&
18
1,
1=
0:
1?
1>
0*
1(
1+
#950000
0%
1'
1"
0&
05
1;
13
08
0,
0?
0>
0=
1:
1>
0(
0+
1*
1+
#960000
1$
0#
0"
1&
1<
07
03
18
1,
1?
0>
06
1(
0+
0)
#965000
0'
0;
0,
0?
1>
0(
1+
#970000
1%
1"
15
13
1,
19
0:
0*
#975000
0$
0%
0<
05
0,
0>
09
16
1:
0+
1)
1*
#980000
1#
1'
0"
1%
17
1;
03
15
1,
1=
0:
1>
0>
0*
1+
0+
#985000
0&
0%
08
05
0,
0=
1:
06
1>
1*
0)
1+
#990000
1$
0'
1"
1&
1%
1<
0;
13
18
15
1,
19
1=
0:
1:
0>
0*
1*
0+
#995000
1'
0&
1;
08
0,
1?
1>
0=
0:
0>
1(
1+
0*
0+
