lab3_2/simulation/qsim/fourBitsBCD.msim.vcd
$comment
	File created using the following command:
		vcd file fourBitsBCD.msim.vcd -direction
$end
$date
	Sat Oct 21 22:10:15 2023
$end
$version
	ModelSim Version 10.1d
$end
$timescale
	1ps
$end
$scope module fourBitsBCD_vlg_vec_tst $end
$var reg 1 ! C_in $end
$var reg 4 " X [0:3] $end
$var reg 4 # Y [0:3] $end
$var wire 1 $ Cout $end
$var wire 1 % S [0] $end
$var wire 1 & S [1] $end
$var wire 1 ' S [2] $end
$var wire 1 ( S [3] $end
$var wire 1 ) sampler $end
$scope module i1 $end
$var wire 1 * gnd $end
$var wire 1 + vcc $end
$var wire 1 , unknown $end
$var tri1 1 - devclrn $end
$var tri1 1 . devpor $end
$var tri1 1 / devoe $end
$var wire 1 0 C_in~combout $end
$var wire 1 1 inst|Add0~1_cout $end
$var wire 1 2 inst|Add0~3 $end
$var wire 1 3 inst|Add0~5 $end
$var wire 1 4 inst|Add0~6_combout $end
$var wire 1 5 inst|Add0~7 $end
$var wire 1 6 inst|Add0~8_combout $end
$var wire 1 7 inst|Add0~9 $end
$var wire 1 8 inst|Add0~10_combout $end
$var wire 1 9 inst|Add0~4_combout $end
$var wire 1 : inst|LessThan0~0_combout $end
$var wire 1 ; inst|s[3]~0_combout $end
$var wire 1 < inst|s[2]~1_combout $end
$var wire 1 = inst|s[1]~2_combout $end
$var wire 1 > inst|Add0~2_combout $end
$var wire 1 ? X~combout [0] $end
$var wire 1 @ X~combout [1] $end
$var wire 1 A X~combout [2] $end
$var wire 1 B X~combout [3] $end
$var wire 1 C Y~combout [0] $end
$var wire 1 D Y~combout [1] $end
$var wire 1 E Y~combout [2] $end
$var wire 1 F Y~combout [3] $end
$upscope $end
$upscope $end
$enddefinitions $end
#0
$dumpvars
0!
b10 "
b11 #
0$
1(
0'
1&
0%
x)
0*
1+
x,
1-
1.
1/
00
01
12
13
14
15
06
07
08
09
0:
0;
1<
0=
1>
0B
1A
0@
0?
1F
1E
0D
0C
$end
#5000
b11 "
b1 "
b10 #
b0 #
b100 #
0F
0E
1D
1B
0A
0)
03
05
04
15
14
16
0<
06
1=
1:
0&
0=
1<
0:
1'
1$
0'
1&
0$
#10000
b0 "
b10 "
b110 #
1E
0B
1A
1)
13
0>
05
04
0(
16
0<
1;
0&
1%
#15000
b110 "
b10 #
b111 "
b101 "
0D
1B
0A
1@
0)
1>
03
19
15
14
0;
1:
1(
06
1<
0%
1$
1=
0:
1&
1'
0$
#20000
b11 #
b1 #
b101 #
1F
0E
1D
1)
02
0>
09
05
04
19
0=
0<
16
0(
1:
0'
0&
1$
#25000
b1 "
b0 "
b100 #
b110 #
b10 #
0F
1E
0D
0B
0@
0)
12
13
09
15
03
19
14
1;
0:
06
04
1=
1<
0;
1%
0$
0<
1'
1&
0%
0&
#30000
b100 "
b0 #
b100 #
0E
1D
1@
1)
09
05
0=
16
1;
0'
1%
#35000
b101 "
1B
0)
1>
1(
#40000
b110 #
b100 "
0B
1E
1)
0>
19
0;
1:
0(
0%
1$
#45000
b110 "
b10 "
b10 #
0D
1A
0@
0)
15
13
09
06
14
1;
0:
1<
0;
1%
0$
1&
0%
#50000
b11 "
1B
1)
1>
1(
#55000
b11 #
b1 #
b111 "
b110 "
0B
1@
1F
0E
0)
05
04
03
19
16
1=
0<
15
14
0=
1<
1:
06
1'
0&
1=
0:
0'
1&
1$
1'
0$
#60000
b0 #
b111 "
1B
0F
1)
#65000
b100 #
b110 #
b11 "
0@
1E
1D
0)
13
09
05
04
0=
16
0<
0'
1;
0&
1%
#70000
b111 #
b11 #
b1 #
b111 "
1@
1F
0E
0D
1)
02
0>
03
19
13
09
15
14
0;
1:
0(
05
04
1=
06
0%
1$
16
0=
0:
1'
1;
0'
0$
1%
#75000
b101 "
b100 "
b0 #
b100 #
0F
1D
0B
0A
0)
12
14
03
19
09
1<
0;
1:
04
0<
1;
0:
1&
0%
1$
0&
1%
0$
#80000
b110 #
b0 "
b10 "
b111 #
1A
0@
1F
1E
1)
13
15
14
1>
05
04
06
1=
0;
1:
1(
16
0=
0:
1'
0%
1$
1;
0'
0$
1%
#85000
b11 "
b11 #
b1 #
b1 "
b0 #
0F
0E
0D
1B
0A
0)
03
15
14
04
06
1=
0;
1:
0=
0:
1'
0%
1$
0'
0$
#90000
b0 "
b10 "
0B
1A
1)
0>
19
1=
0(
1'
#95000
b10 #
b11 #
b11 "
b1 "
1B
0A
1F
1E
0)
02
13
09
14
0=
1<
0'
1&
#100000
b111 #
b101 #
b0 "
0B
0E
1D
1)
12
1>
03
19
05
04
09
15
14
1=
0<
16
1(
1:
06
1'
0&
0=
1<
0:
1$
0'
1&
0$
#105000
b100 #
b10 "
b110 #
b11 "
1B
1A
0F
1E
0)
13
05
04
16
0<
1;
0&
1%
#110000
b111 "
b10 #
b101 "
0D
0A
1@
1)
03
19
15
14
0;
1:
06
1<
0%
1$
1=
0:
1&
1'
0$
#115000
b11 #
b100 "
b0 "
b111 #
0B
0@
1F
1D
0)
#120000
b101 #
b100 #
b100 "
1@
0F
0E
1)
05
04
0>
09
16
0=
0<
0(
1;
0'
0&
1%
#125000
b0 #
b10 #
b0 "
0@
1E
0D
0)
15
19
06
0;
1:
1=
0:
0%
1$
1'
0$
#130000
b10 "
b11 #
b111 #
1F
1D
1A
1)
1>
14
13
09
0=
1<
05
04
1(
16
0<
0'
1&
1;
0&
1%
#135000
b11 "
b101 #
b111 "
b101 "
b1 #
0E
0D
1B
0A
1@
0)
03
02
0>
15
14
19
0(
06
1<
0;
1:
1=
0:
1&
0%
1$
1'
0$
#140000
b0 #
b100 "
b0 "
0B
0@
0F
1)
12
04
09
0<
0=
0&
0'
#145000
b10 "
b100 #
b101 #
b11 "
1F
1D
1B
1A
0)
02
14
19
13
09
1=
1<
05
04
0=
1'
1&
16
0<
0'
1;
0&
1%
#150000
b111 #
b1 "
b11 #
b10 #
b0 "
0B
0A
0F
1E
0D
1)
12
15
14
03
19
06
1=
0;
1:
04
1<
0:
1'
0%
1$
0<
1&
0$
0&
#155000
b100 "
b11 #
b101 "
1F
1B
1@
0)
02
14
13
09
1<
05
04
0=
1&
16
0<
0'
1;
0&
1%
#160000
b111 #
b1 "
b110 #
b0 "
0B
0@
0F
1D
1)
12
03
19
15
14
0;
1:
06
1<
0%
1$
1=
0:
1&
1'
0$
#165000
b100 #
b10 "
b0 #
1A
0E
0D
0)
04
0<
0&
#170000
b100 #
1D
1)
14
1<
1&
#175000
b0 "
b0 #
0D
0A
0)
04
09
0=
0<
0'
0&
#180000
b1 "
b10 #
b110 #
1E
1D
1B
1)
19
14
1>
1=
1<
1(
1'
1&
#185000
b100 #
b0 #
0E
0D
0)
09
04
0=
0<
0'
0&
#190000
b11 "
b10 "
b10 #
1E
0B
1A
1)
13
0>
14
0(
1<
1&
#195000
b110 "
b111 "
1B
1@
0)
1>
05
04
16
0<
1(
1;
0&
1%
#200000
b11 #
b111 #
b101 "
b101 #
b1 "
0A
0@
1F
0E
1D
1)
03
02
0>
15
14
19
0(
06
1<
0;
1:
1=
0:
1&
0%
1$
1'
0$
#205000
b0 "
b100 #
b110 #
0F
1E
0B
0)
12
13
09
03
19
05
04
0=
15
14
1=
0<
16
0'
06
0=
1<
1:
1'
0&
1=
0:
0'
1&
1$
1'
0$
#210000
b10 #
b10 "
b110 "
b111 "
b11 #
b1 #
1B
1A
1@
1F
0E
0D
1)
02
13
09
05
04
0=
16
0<
0'
1;
0&
1%
#215000
b101 #
b11 "
b111 #
0@
1E
1D
0)
19
0;
1:
0%
1$
#220000
b10 "
b110 #
b110 "
0F
0B
1@
1)
12
14
09
1<
1=
0<
1&
1'
0&
#225000
b100 "
b100 #
b101 #
1F
0E
0A
0)
1>
03
04
1(
0=
1;
0:
0'
1%
0$
#230000
b101 "
b1 "
b111 #
1E
1B
0@
1)
19
02
0>
15
14
1<
0;
1:
13
09
06
0(
05
04
0:
1&
0%
1$
16
0<
0$
1;
0&
1%
#235000
b11 "
b111 "
1A
1@
0)
19
14
1<
0;
1:
1&
0%
1$
#240000
b11 #
b1 #
b101 "
0A
0E
0D
1)
03
04
15
14
0<
06
1<
0&
1=
0:
1&
1'
0$
#245000
b0 #
b1 "
b11 "
1A
0@
0F
0)
13
09
04
12
1>
14
0=
0<
03
19
1(
1=
1<
04
0'
0&
0<
1'
1&
0&
#250000
b1 #
b1 "
0A
1F
1)
09
02
0>
0=
19
0(
1=
0'
1'
#255000
b0 "
b101 #
b111 #
b100 "
b110 "
1E
1D
0B
1A
1@
0)
13
05
12
1>
14
16
09
1(
1:
1$
#260000
b101 #
b100 "
0A
0E
1)
03
04
0=
1;
0:
0'
1%
0$
#265000
b100 #
b101 "
b0 #
b1 "
b11 "
1B
1A
0@
0F
0D
0)
19
15
0;
1:
06
1=
0:
0%
1$
1'
0$
#270000
b100 #
1D
1)
14
1<
1&
#275000
b110 #
b111 #
b10 "
0B
1F
1E
0)
13
09
05
04
0=
16
0<
0'
1;
0&
1%
#280000
b11 #
b1 #
b11 "
1B
0E
0D
1)
02
0>
03
19
15
14
13
09
04
1<
0;
1:
06
0(
14
0<
0:
1&
0%
1$
1<
0&
0$
1&
#285000
b0 #
b10 #
b10 "
0B
0F
1E
0)
12
19
09
1=
0=
1'
0'
#290000
b0 "
b110 #
b111 #
b101 #
1F
0E
1D
0A
1)
1>
03
05
04
15
14
16
0<
1(
06
1=
1:
0&
0=
1<
0:
1'
1$
0'
1&
0$
#295000
b100 "
b101 "
b100 #
0F
1B
1@
0)
05
04
16
0<
1;
0&
1%
#300000
b111 "
b0 #
b10 #
1E
0D
1A
1)
13
15
14
05
04
06
1=
0;
1:
16
0=
0:
1'
0%
1$
1;
0'
0$
1%
#305000
b11 #
b101 "
b111 #
0A
1F
1D
0)
03
19
02
0>
14
04
1<
0;
1:
13
09
0(
0<
1;
0:
14
1&
0%
1$
1=
0;
1:
0&
1%
0$
1'
0%
1$
#310000
b1 "
b11 "
1A
0@
1)
19
04
0=
0'
#315000
b111 "
1@
0)
14
1<
1&
#320000
b110 "
b110 #
b10 #
b100 "
b0 "
0F
0D
0B
0A
0@
1)
12
15
09
03
19
06
1=
0<
04
1<
0:
1'
0&
0<
1&
0$
0&
#325000
b1 "
b11 #
b11 "
b111 "
1F
1B
1A
1@
0)
02
13
09
14
19
05
04
0=
1<
1=
0<
16
0'
1&
0=
1:
1'
0&
0'
1$
#330000
b111 #
b110 "
b110 #
b10 "
0B
0@
0F
1D
1)
12
09
1;
0:
1%
0$
#335000
b100 #
b101 #
1F
0E
0)
1>
03
19
15
14
0;
1:
1(
06
1<
0%
1$
1=
0:
1&
1'
0$
#340000
b11 "
b100 #
0F
1B
1)
#345000
b0 #
b10 #
b10 "
0B
1E
0D
0)
0>
13
09
04
14
0=
0<
0(
1<
0'
0&
1&
#350000
b0 "
b100 "
b0 #
b101 "
0E
1B
0A
1@
1)
03
1>
05
04
15
14
16
0<
1(
06
1=
1:
0&
0=
1<
0:
1'
1$
0'
1&
0$
#355000
b100 #
b1 "
b110 #
b0 "
0B
0@
1E
1D
0)
0>
19
1=
0(
1'
#360000
b111 #
b10 "
b11 #
b1 #
b11 "
1B
1A
1F
0E
0D
1)
02
04
13
09
0<
14
0=
0&
1<
0'
1&
#365000
b111 "
b101 "
b101 #
b100 "
1D
0B
0A
1@
0)
05
12
1>
03
19
16
09
04
1=
1(
0=
0<
1;
1'
0'
0&
1%
#370000
b100 #
b0 #
0F
0D
1)
0>
15
14
06
1=
0;
1:
0(
0=
1<
0:
1'
0%
1$
0'
1&
0$
#375000
b101 "
b1 #
1F
1B
0)
02
19
1=
1'
#380000
b11 #
b1 "
b0 "
0B
0@
1E
1)
12
1>
04
13
09
03
19
0=
0<
14
1(
04
1=
1<
0'
0&
0<
1'
1&
0&
#385000
b10 "
b10 #
b110 "
0F
1A
1@
0)
0>
13
09
14
05
04
0=
1<
0(
16
0<
0'
1&
1;
0&
1%
#390000
b0 #
b111 "
b1 #
b11 "
1B
0@
1F
0E
1)
02
15
14
03
19
13
09
06
1<
0;
1:
04
14
0<
0:
1&
0%
1$
1<
0&
0$
1&
#395000
b1 "
b11 #
b10 #
b101 "
0F
1E
0A
1@
0)
12
1>
05
04
03
19
16
0<
1(
15
14
1:
0&
06
1<
1$
1=
0:
1&
1'
0$
#400000
b110 #
b111 "
b111 #
1A
1F
1D
1)
13
09
02
0>
05
04
14
0=
0<
19
16
0(
1<
1:
0'
0&
1&
1$
#405000
b101 #
b11 "
b1 #
0@
0E
0D
0)
15
09
06
1=
0<
0=
1<
0:
1'
0&
0'
1&
0$
#410000
b0 #
b10 #
b111 "
b110 #
1@
0F
1E
1D
1)
05
12
1>
19
16
09
1=
1(
0<
1:
1'
0&
1$
#415000
b110 "
b100 "
b111 #
b101 #
b0 "
1F
0E
0B
0A
0@
0)
03
04
15
14
0=
1;
0:
06
1=
0;
1:
0'
1%
0$
0=
1<
0:
1'
0%
1$
0'
1&
0$
#420000
b1 #
b1 "
b0 #
b10 #
1B
0F
1E
0D
1)
19
04
1=
0<
1'
0&
#425000
b101 "
b100 "
b11 #
b1 #
1F
0E
0B
1@
0)
09
14
0=
1<
0'
1&
#430000
b110 "
b101 #
b111 "
b100 #
b110 #
0F
1E
1D
1B
1A
1)
13
05
04
14
16
0<
1=
1:
0&
1'
1$
#435000
b11 "
b100 #
0E
0@
0)
03
19
04
15
14
0=
06
1<
0'
1=
0:
1&
1'
0$
#440000
b1 "
b0 "
b101 #
1F
0B
0A
1)
09
0=
0'
#445000
b1 #
b100 "
b110 "
1A
1@
0D
0)
19
1=
1'
#450000
b11 #
b10 "
0@
1E
1)
04
13
09
0=
0<
14
1<
0'
0&
1&
#455000
b10 #
b110 #
b0 "
0A
0F
1D
0)
03
19
0>
05
04
15
14
1=
0<
16
0(
06
0=
1<
1:
1'
0&
1=
0:
0'
1&
1$
1'
0$
#460000
b100 "
b111 #
b11 #
b110 "
1F
0D
1A
1@
1)
1>
13
09
05
04
0=
1(
16
0<
0'
1;
0&
1%
#465000
b111 #
b100 "
0A
1D
0)
03
19
14
04
1<
0;
1:
0<
1&
0%
1$
0&
#470000
b11 #
0D
1)
15
14
06
1<
1=
0:
1&
1'
0$
#475000
b1 #
b0 "
b0 #
b100 #
0@
0F
0E
1D
0)
0>
09
0=
0(
0'
#480000
b10 "
b110 "
1A
1@
1)
19
05
04
1=
0<
16
0=
1:
1'
0&
0'
1$
#485000
b110 #
b111 #
b100 "
0A
1F
1E
0)
1>
1(
#490000
b101 "
b11 #
b1 "
b1 #
b0 #
b11 "
0F
0E
0D
1B
1A
0@
1)
15
06
1=
0:
1'
0$
#495000
b100 #
b111 "
b110 #
1@
1E
1D
0)
05
13
09
16
14
0=
1=
1:
0'
1'
1$
#500000
b110 "
b100 "
b100 #
0E
0B
0A
1)
03
0>
04
0(
0=
1;
0:
0'
1%
0$
#505000
b101 #
b1 #
b0 "
b1 "
b11 "
1B
1A
0@
1F
0D
0)
02
19
15
13
09
0;
1:
06
14
0:
0%
1$
1<
0$
1&
#510000
b11 #
b10 #
b110 #
b1 "
0A
0F
1E
1D
1)
12
1>
05
04
03
19
16
0<
1(
15
14
1:
0&
06
1<
1$
1=
0:
1&
1'
0$
#515000
b100 #
b0 #
0E
0D
0)
09
04
0=
0<
0'
0&
#525000
b101 "
b1 #
b101 #
1F
1D
1@
1)
02
0>
05
19
16
0(
1:
1$
#530000
b100 "
b110 "
b111 #
b11 #
1E
0D
0B
1A
0)
13
15
14
12
1>
05
04
06
1<
09
1(
16
0<
0:
1&
1;
0&
0$
1%
#535000
b10 "
b10 #
b11 "
b1 "
b110 #
0F
1D
1B
0A
0@
1)
03
19
15
14
0;
1:
06
1<
0%
1$
1=
0:
1&
1'
0$
#540000
b101 "
b111 #
b111 "
b11 #
1F
0D
1A
1@
0)
02
0>
13
09
19
05
04
0=
0(
1=
0<
16
0'
0=
1:
1'
0&
0'
1$
#545000
b110 "
b111 #
1D
0B
1)
14
12
1>
1<
09
1(
1=
0<
1&
1'
0&
#550000
b110 #
b111 "
b10 #
1B
0F
0D
0)
04
0=
1;
0:
0'
1%
0$
#555000
b11 "
b1 "
b0 "
0B
0A
0@
1)
0>
03
19
15
14
04
1<
0;
1:
06
0(
1=
0<
0:
1&
0%
1$
1'
0&
0$
#560000
b11 #
b111 #
b100 "
b110 "
b111 "
1B
1A
1@
1F
1D
0)
02
13
09
05
19
14
0=
16
1<
1:
0'
1&
1$
#565000
b101 #
b11 "
0@
0E
1)
04
09
0<
1;
0:
0&
1%
0$
#570000
b1 "
b111 #
b101 "
1E
0A
1@
0)
14
1=
0;
1:
1'
0%
1$
#575000
b100 "
b110 "
b10 "
0B
1A
0@
1)
12
1>
19
04
09
0=
1(
1;
0:
0'
1%
0$
#580000
b110 #
b11 "
b1 "
1B
0A
0F
0)
03
19
15
14
0;
1:
06
1<
0%
1$
1=
0:
1&
1'
0$
#585000
b100 #
b101 #
1F
0E
1)
02
0>
09
19
0=
0(
1=
0'
1'
#590000
b11 "
b100 #
0F
1A
0)
12
1>
13
09
03
19
05
04
0=
1(
15
14
1=
0<
16
0'
06
0=
1<
1:
1'
0&
1=
0:
0'
1&
1$
1'
0$
#595000
b111 "
b110 "
b100 "
0B
0A
1@
1)
0>
09
05
04
0=
0<
16
0(
1;
0'
0&
1%
#600000
b101 #
b0 "
0@
1F
0)
15
14
1>
06
1=
0;
1:
1(
0=
1<
0:
1'
0%
1$
0'
1&
0$
#605000
b1 #
b11 #
b10 #
0F
1E
0D
1)
0>
19
04
1=
0<
0(
1'
0&
#610000
b1 "
b11 "
b11 #
1F
1B
1A
0)
02
13
09
19
14
0=
1=
1<
0'
1'
1&
#615000
b111 "
b111 #
b101 "
b110 #
0F
1D
0A
1@
1)
12
1>
05
09
03
19
16
0=
1(
04
1:
0'
0<
1$
0&
#620000
b100 "
b110 "
b111 #
1F
0B
1A
0)
13
09
14
1;
0:
1=
0;
1:
1%
0$
1'
0%
1$
#625000
b101 #
b1 #
b100 "
0A
0E
0D
1)
03
04
15
14
0=
1;
0:
06
1=
0;
1:
0'
1%
0$
0=
1<
0:
1'
0%
1$
0'
1&
0$
#630000
b101 "
b0 #
b10 #
0F
1E
1B
0)
19
1=
1'
#635000
b110 #
b100 "
0B
1D
1)
0>
05
04
16
0<
0(
0=
1:
0&
0'
1$
#640000
b0 "
b111 #
b1 "
1F
1B
0@
0)
02
15
14
13
09
06
1<
05
04
0:
1&
16
0<
0$
1;
0&
1%
#645000
b11 "
b101 #
0E
1A
1)
#650000
b100 #
b10 "
b0 "
0B
0A
0F
0)
12
03
19
09
15
14
0;
1:
1=
06
0%
1$
0=
1<
0:
1'
0'
1&
0$
#655000
b0 #
b1 #
1F
0D
1)
1>
04
0<
1(
0&
#660000
b1 "
b101 #
1D
1B
0)
14
02
0>
1<
19
0(
1=
1&
1'
#665000
b101 "
b111 "
1A
1@
1)
13
09
05
04
14
0=
0<
16
1=
1:
0'
0&
1'
1$
#670000
b110 "
b1 #
0D
0B
0)
04
12
1>
0=
1;
0:
03
19
1(
15
14
0;
1:
0'
1%
0$
06
1<
0%
1$
1=
0:
1&
1'
0$
#675000
b100 "
b101 #
1D
0A
1)
05
04
09
16
0=
0<
1;
0'
0&
1%
#680000
b111 #
b101 "
b11 #
1B
1E
0D
0)
02
0>
19
15
14
13
09
1<
0;
1:
06
0(
05
04
0:
1&
0%
1$
16
0<
0$
1;
0&
1%
#685000
b111 "
b1 #
b101 #
0E
1D
1A
1)
14
1=
0;
1:
1'
0%
1$
#690000
b101 "
b1 #
0D
0A
0)
04
03
19
0=
15
14
06
1<
0'
1=
0:
1&
1'
0$
#695000
b1 "
b11 #
b11 "
b111 #
1E
1D
1A
0@
1)
13
05
04
16
0<
0=
1:
0&
0'
1$
#700000
b101 #
0E
0)
09
1;
0:
1%
0$
#705000
b100 #
b10 "
b110 "
b100 "
b0 #
0B
0A
1@
0F
0D
1)
12
03
19
09
15
14
0;
1:
1=
06
0%
1$
0=
1<
0:
1'
0'
1&
0$
#710000
b1 #
b0 "
b101 #
0@
1F
1D
0)
1>
1(
#715000
b111 #
b10 "
b110 "
b11 #
1A
1@
1E
0D
1)
13
05
04
16
0<
1;
0&
1%
#720000
b10 #
b0 #
b100 #
0F
0E
1D
0)
0>
03
19
14
04
1<
0;
1:
0(
0<
1&
0%
1$
0&
#725000
b10 "
b0 #
0D
0@
1)
15
06
1=
0:
1'
0$
#730000
b11 "
b1 "
1B
0A
0)
1>
09
0=
1(
0'
#735000
b101 "
b100 #
b100 "
1D
0B
1@
1)
05
0>
16
0(
1;
1%
#740000
b101 #
b111 #
b110 "
b11 #
1A
1F
1E
0D
0)
13
1>
15
14
05
04
06
1=
0;
1:
1(
16
0=
0:
1'
0%
1$
1;
0'
0$
1%
#745000
b1 #
0E
1)
03
19
15
14
0;
1:
06
1<
0%
1$
1=
0:
1&
1'
0$
#750000
b111 "
b101 "
b101 #
b111 #
1E
1D
1B
0A
0)
05
04
02
0>
16
0<
13
09
0(
0=
1;
14
0&
1=
0;
1:
0'
1%
1'
0%
1$
#755000
b1 "
b110 #
b0 "
b10 "
0F
0B
1A
0@
1)
12
19
04
09
0=
1;
0:
0'
1%
0$
#760000
b0 "
0A
0)
03
19
15
14
0;
1:
06
1<
0%
1$
1=
0:
1&
1'
0$
#765000
b10 #
b0 #
b100 "
b1 #
b101 "
1B
1@
1F
0E
0D
1)
02
09
19
0=
1=
0'
1'
#770000
b111 "
b101 #
b111 #
b11 "
b10 "
1E
1D
0B
1A
0@
0)
13
12
1>
05
04
09
1(
16
0=
0<
1;
0'
0&
1%
#775000
b110 #
b0 "
b10 #
b1 "
1B
0A
0F
0D
1)
03
19
15
14
04
1<
0;
1:
06
1=
0<
0:
1&
0%
1$
1'
0&
0$
#780000
b0 #
b11 "
b10 "
0B
1A
0E
0)
0>
0(
#785000
b1 #
b11 #
b0 "
b1 "
1B
0A
1F
1E
1)
02
13
09
14
0=
1<
0'
1&
#790000
b101 "
b111 #
b110 #
b100 #
b111 "
0F
0E
1D
1A
1@
0)
12
1>
05
03
19
16
1(
04
1:
0<
1$
0&
#795000
b110 "
b10 "
b0 "
0B
0A
0@
1)
0>
09
15
14
1=
06
0(
0=
1<
0:
1'
0'
1&
0$
#800000
b0 #
b1 #
b11 #
b1 "
1B
1F
1E
0D
0)
02
19
04
13
09
1=
0<
14
0=
1'
0&
1<
0'
1&
#805000
b1 #
b0 "
0B
0E
1)
12
1>
03
19
09
04
1=
1(
0=
0<
1'
0'
0&
#810000
b101 #
b100 #
b1 "
1B
0F
1D
0)
14
1<
1&
#815000
b101 "
b111 "
b110 #
b10 #
b110 "
1E
0D
0B
1A
1@
1)
13
0>
05
04
0(
16
0<
1;
0&
1%
#820000
b11 #
b10 "
b0 "
b111 #
0A
0@
1F
1D
0)
03
19
1>
15
14
0;
1:
1(
06
1<
0%
1$
1=
0:
1&
1'
0$
#825000
b101 #
0E
1)
09
0=
0'
#830000
b1 "
b101 "
b111 "
b111 #
1E
1B
1A
1@
0)
13
02
0>
05
04
14
19
16
0<
0(
1<
1:
0&
1&
1$
#835000
b110 #
b10 #
b110 "
b10 "
b0 "
0B
0A
0@
0F
0D
1)
12
09
15
03
19
1=
0<
06
04
1<
0:
1'
0&
0<
1&
0$
0&
#840000
b0 #
b1 #
b101 #
b1 "
b101 "
b111 "
1B
1A
1@
1F
0E
1D
0)
02
05
13
09
16
14
0=
1;
1=
0;
1:
0'
1%
1'
0%
1$
#845000
b1 #
0D
1)
04
0=
1;
0:
0'
1%
0$
#850000
b11 #
b110 "
b10 "
b0 "
0B
0A
0@
1E
0)
12
1>
15
14
03
19
06
1=
0;
1:
1(
04
1<
0:
1'
0%
1$
0<
1&
0$
0&
#855000
b10 #
b110 #
b100 #
b100 "
1@
0F
0E
1D
1)
05
0>
09
16
0=
0(
1;
0'
1%
#860000
b110 "
b10 "
1A
0@
0)
19
15
14
1<
0;
1:
06
1=
0:
1&
0%
1$
1'
0$
#865000
b101 #
b111 #
b110 "
1@
1F
1E
1)
05
04
1>
13
09
16
0=
0<
14
1(
1=
1:
0'
0&
1'
1$
#870000
b101 #
0E
0)
03
19
04
0=
1<
0<
0'
1&
0&
#875000
b1 #
b0 #
b10 #
0F
1E
0D
1)
0>
13
09
15
14
05
04
1=
06
0(
16
0=
0:
1'
1;
0'
0$
1%
#880000
b11 #
1F
0)
1>
1(
#885000
b100 "
b10 #
0F
0A
1)
0>
03
19
15
14
0;
1:
0(
06
1<
0%
1$
1=
0:
1&
1'
0$
#890000
b101 "
b111 "
b11 #
1F
1B
1A
0)
02
13
09
19
05
04
0=
1=
0<
16
0'
0=
1:
1'
0&
0'
1$
#895000
b111 #
b101 "
b110 #
0A
0F
1D
1)
09
12
1>
14
1=
03
19
1(
04
0=
1<
1'
0<
0'
1&
0&
#900000
b1 "
b100 #
b0 "
b0 #
b10 "
0E
0D
0B
1A
0@
0)
15
0>
06
0(
1=
0:
1'
0$
#905000
b10 #
b11 "
b1 "
1B
0A
1E
1)
1>
1(
#910000
b11 #
b111 #
b101 #
1F
0E
1D
0)
02
0>
09
14
19
0=
1<
0(
1=
0'
1&
1'
#915000
b101 "
b100 "
b100 #
b0 #
0F
0D
0B
1@
1)
12
09
0=
0'
#920000
b10 #
b110 #
1E
1D
0)
19
05
04
1=
0<
16
0=
1:
1'
0&
0'
1$
#925000
b110 "
b111 "
b111 #
b101 #
1F
0E
1B
1A
1)
02
13
09
14
1;
0:
1=
0;
1:
1%
0$
1'
0%
1$
#930000
b11 "
b100 #
b110 #
0F
1E
0@
0)
12
1>
19
04
09
0=
1(
1;
0:
0'
1%
0$
#935000
b10 #
b111 "
b11 #
b1 #
1@
1F
0E
0D
1)
02
0>
03
19
13
09
15
14
0;
1:
0(
05
04
1=
06
0%
1$
16
0=
0:
1'
1;
0'
0$
1%
#940000
b110 "
b11 #
1E
0B
0)
19
12
1>
0;
1:
09
1(
1;
0:
0%
1$
1%
0$
#945000
b100 "
b0 "
b1 "
1B
0A
0@
1)
02
0>
03
19
15
14
13
09
04
1<
0;
1:
06
0(
14
0<
0:
1&
0%
1$
1<
0&
0$
1&
#950000
b111 #
b110 #
b100 #
b101 "
1@
0F
0E
1D
0)
05
12
1>
03
19
16
09
04
1=
1(
0=
0<
1;
1'
0'
0&
1%
#955000
b111 "
b110 "
0B
1A
1)
0>
19
0;
1:
0(
0%
1$
#960000
b100 "
b101 "
1B
0A
0)
1>
09
1;
0:
1(
1%
0$
#965000
b0 #
b10 #
b100 "
0B
1E
0D
1)
0>
19
15
14
1<
0;
1:
06
0(
1=
0:
1&
0%
1$
1'
0$
#970000
b0 "
b110 #
b100 #
0E
1D
0@
0)
09
0=
0'
#975000
b101 #
1F
1)
1>
1(
#980000
b10 "
b11 "
b111 "
b1 #
b0 #
0F
0D
1B
1A
1@
0)
19
1=
1'
#985000
b101 "
b100 "
b100 #
1D
0B
0A
1)
05
04
0>
09
16
0=
0<
0(
1;
0'
0&
1%
#990000
b0 "
0@
0)
15
14
06
1=
0;
1:
0=
1<
0:
1'
0%
1$
0'
1&
0$
#995000
b110 #
b111 #
b11 #
b100 "
1@
1F
1E
0D
1)
1>
19
1=
1(
1'
